{
    "data": {
        "pokemons": {
            "count": 1302,
            "next": "https://pokeapi.co/api/v2/pokemon/?offset=16&limit=16",
            "previous": null,
            "status": true,
            "message": "",
            "results": [
                {
                    "id": 1,
                    "name": "bulbasaur",
                    "artwork": "https://raw.githubusercontent.com/PokeAPI/sprites/master/sprites/pokemon/other/official-artwork/1.png"
                },
                {
                    "id": 2,
                    "name": "ivysaur",
                    "artwork": "https://raw.githubusercontent.com/PokeAPI/sprites/master/sprites/pokemon/other/official-artwork/2.png"
                },
                {
                    "id": 3,
                    "name": "venusaur",
                    "artwork": "https://raw.githubusercontent.com/PokeAPI/sprites/master/sprites/pokemon/other/official-artwork/3.png"
                },
                {
                    "id": 4,
                    "name": "charmander",
                    "artwork": "https://raw.githubusercontent.com/PokeAPI/sprites/master/sprites/pokemon/other/official-artwork/4.png"
                },
                {
                    "id": 5,
                    "name": "charmeleon",
                    "artwork": "https://raw.githubusercontent.com/PokeAPI/sprites/master/sprites/pokemon/other/official-artwork/5.png"
                },
                {
                    "id": 6,
                    "name": "charizard",
                    "artwork": "https://raw.githubusercontent.com/PokeAPI/sprites/master/sprites/pokemon/other/official-artwork/6.png"
                },
                {
                    "id": 7,
                    "name": "squirtle",
                    "artwork": "https://raw.githubusercontent.com/PokeAPI/sprites/master/sprites/pokemon/other/official-artwork/7.png"
                },
                {
                    "id": 8,
                    "name": "wartortle",
                    "artwork": "https://raw.githubusercontent.com/PokeAPI/sprites/master/sprites/pokemon/other/official-artwork/8.png"
                },
                {
                    "id": 9,
                    "name": "blastoise",
                    "artwork": "https://raw.githubusercontent.com/PokeAPI/sprites/master/sprites/pokemon/other/official-artwork/9.png"
                },
                {
                    "id": 10,
                    "name": "caterpie",
                    "artwork": "https://raw.githubusercontent.com/PokeAPI/sprites/master/sprites/pokemon/other/official-artwork/10.png"
                },
                {
                    "id": 11,
                    "name": "metapod",
                    "artwork": "https://raw.githubusercontent.com/PokeAPI/sprites/master/sprites/pokemon/other/official-artwork/11.png"
                },
                {
                    "id": 12,
                    "name": "butterfree",
                    "artwork": "https://raw.githubusercontent.com/PokeAPI/sprites/master/sprites/pokemon/other/official-artwork/12.png"
                },
                {
                    "id": 13,
                    "name": "weedle",
                    "artwork": "https://raw.githubusercontent.com/PokeAPI/sprites/master/sprites/pokemon/other/official-artwork/13.png"
                },
                {
                    "id": 14,
                    "name": "kakuna",
                    "artwork": "https://raw.githubusercontent.com/PokeAPI/sprites/master/sprites/pokemon/other/official-artwork/14.png"
                },
                {
                    "id": 15,
                    "name": "beedrill",
                    "artwork": "https://raw.githubusercontent.com/PokeAPI/sprites/master/sprites/pokemon/other/official-artwork/15.png"
                },
                {
                    "id": 16,
                    "name": "pidgey",
                    "artwork": "https://raw.githubusercontent.com/PokeAPI/sprites/master/sprites/pokemon/other/official-artwork/16.png"
                }
            ]
        }
    }
}